{
  "activeViewId" : "07e98997-4f06-4b6f-947d-2eef2849eb63",
  "appPageId" : "e4f43b6d-c6c5-4237-8a9a-154f462cb4b2",
  "configurationTags" : [ ],
  "id" : "5433be20-7703-44f9-9d59-444904d4f966",
  "label" : "Contact Support",
  "routeType" : "contactsupport",
  "type" : "route",
  "urlPrefix" : "contactsupport"
}