{
  "activeViewId" : "6fec90d4-7435-459f-97bd-f3c1f94228bf",
  "appPageId" : "e4f43b6d-c6c5-4237-8a9a-154f462cb4b2",
  "configurationTags" : [ ],
  "id" : "1d0492f1-3ef1-4dd4-a550-197204e9776d",
  "label" : "Error",
  "routeType" : "error",
  "type" : "route",
  "urlPrefix" : "error"
}