{
  "activeViewId" : "e4118fcf-89b1-4009-b210-db2cb11a277a",
  "appPageId" : "e4f43b6d-c6c5-4237-8a9a-154f462cb4b2",
  "configurationTags" : [ ],
  "id" : "6e6f3b89-caeb-40cd-b4c2-390e04fbcff8",
  "label" : "File Related List",
  "routeType" : "relatedlist-069",
  "type" : "route",
  "urlPrefix" : "contentdocument"
}