{
  "activeViewId" : "ca2d70d8-2b83-4301-b03f-a08423559e33",
  "appPageId" : "e4f43b6d-c6c5-4237-8a9a-154f462cb4b2",
  "configurationTags" : [ ],
  "id" : "ea39d6d9-877a-4fbc-85a6-0c87984258b2",
  "label" : "Flow",
  "routeType" : "flow",
  "type" : "route",
  "urlPrefix" : "flow"
}