{
  "activeViewId" : "6dbd4bec-2bcf-4980-bdbb-84beed169cc8",
  "appPageId" : "e4f43b6d-c6c5-4237-8a9a-154f462cb4b2",
  "configurationTags" : [ ],
  "id" : "65c48da2-b3de-4cf7-8c33-0bcaf38f8df4",
  "label" : "Topic Catalog",
  "routeType" : "topic-catalog",
  "type" : "route",
  "urlPrefix" : "topiccatalog"
}