{
  "activeBrandingSetId" : "0bb8bbb5-1fc9-4a39-b4c4-a6a722602492",
  "customCSS" : "",
  "developerName" : "service",
  "id" : "1605127d-b80f-4d5c-8c70-d8bd9de6f5c6",
  "label" : "Customer Service",
  "layouts" : {
    "Inner" : "f3c64dd3-d033-44ff-8763-bf37c7433f36",
    "Login" : "4db798bd-b738-48ee-9b20-dd16aab713e4",
    "ServiceNotAvailable" : "8c53d953-3fbd-4c4b-a889-987bb7f1dd47"
  },
  "type" : "theme",
  "views" : [ {
    "componentAttributes" : { },
    "componentName" : "salesforceIdentity:loginBody2",
    "id" : "4db798bd-b738-48ee-9b20-dd16aab713e4",
    "label" : "Login",
    "regions" : [ {
      "id" : "6569ab46-5a37-40e5-9d64-e24bda811bb1",
      "regionName" : "header",
      "type" : "region"
    }, {
      "id" : "ce2b6b0a-5fcc-400e-9aca-04c77c1bca24",
      "regionName" : "content",
      "type" : "region"
    }, {
      "id" : "89f9df3a-4f43-48e2-9bda-53e6acffb387",
      "regionName" : "footer",
      "type" : "region"
    } ],
    "type" : "view"
  }, {
    "componentAttributes" : {
      "IsDefaultHeaderHidden" : false,
      "IsDefaultNotificationsHidden" : false,
      "fixedPageWidth" : 1140,
      "isPageWidthFixed" : true
    },
    "componentName" : "siteforce:serviceBody",
    "id" : "f3c64dd3-d033-44ff-8763-bf37c7433f36",
    "label" : "Default",
    "regions" : [ {
      "id" : "fd8ec0c5-b1c8-4b82-94ad-a95d8fec51ea",
      "regionName" : "customHeader",
      "type" : "region"
    }, {
      "components" : [ {
        "componentAttributes" : {
          "contineActionLabel" : "Ask the community",
          "continueLabel" : "Don’t see it?",
          "crossObjectTypeaheadApiNames" : [ {
            "isPublic" : true,
            "name" : "KnowledgeArticleVersion"
          }, {
            "isPublic" : true,
            "name" : "FeedItem"
          }, {
            "isPublic" : false,
            "name" : "Case"
          }, {
            "isPublic" : true,
            "name" : "CollaborationGroup"
          } ],
          "disableCrossObjectRelevance" : false,
          "enableAutocomplete" : true,
          "maxNumberOfResults" : 6,
          "placeholder" : "Search...",
          "questionResultsFirst" : false,
          "showContinueAction" : true,
          "showDetails" : false,
          "showTopics" : true,
          "signInActionLabel" : "Sign in to ask the community"
        },
        "componentName" : "forceCommunity:searchBox",
        "id" : "2d9d99ed-5add-4ea8-83a7-464e7c42d7cf",
        "renditionMap" : { },
        "type" : "component"
      } ],
      "id" : "af062441-1031-440c-b09d-8445b838c14f",
      "regionName" : "search",
      "type" : "region"
    }, {
      "components" : [ {
        "componentAttributes" : {
          "accountManagementLabel" : "Account Management",
          "communityBuilderLabel" : "Experience Builder",
          "communitySetupLabel" : "Salesforce Setup",
          "contactSupportLabel" : "Contact Support",
          "filterName" : "MyCases",
          "homeLabel" : "Home",
          "includeContactSupport" : true,
          "includeMessages" : false,
          "loginLabel" : "Login",
          "logoutLabel" : "Logout",
          "myAccountLabel" : "My Account",
          "showAccountManagement" : true,
          "showUserSettings" : true,
          "userSettingsLabel" : "My Settings",
          "viewProfileLabel" : "My Profile"
        },
        "componentName" : "selfService:userProfileMenu",
        "id" : "86e2ab77-d63d-42b0-bad0-db7fc8cf20cb",
        "renditionMap" : { },
        "type" : "component"
      } ],
      "id" : "783b316b-1247-42a8-a024-d3fff5849484",
      "regionName" : "profileMenu",
      "type" : "region"
    }, {
      "components" : [ {
        "componentAttributes" : {
          "NavigationMenuEditorRefresh" : "",
          "hideAppLauncher" : false,
          "hideHomeText" : false
        },
        "componentName" : "forceCommunity:globalNavigation",
        "id" : "c93c431e-6b7f-43f5-bd05-a177cbe51db6",
        "renditionMap" : { },
        "type" : "component"
      } ],
      "id" : "1fa9e7c3-3eb5-4f18-874e-ad6f76cec643",
      "regionName" : "navBar",
      "type" : "region"
    }, {
      "id" : "785d0e7d-a4a9-435b-a93d-87475c10eb94",
      "regionName" : "customRegion",
      "type" : "region"
    }, {
      "id" : "0bcaecd6-9645-479e-a1aa-431be207e26e",
      "regionName" : "footer",
      "type" : "region"
    } ],
    "type" : "view"
  }, {
    "componentAttributes" : {
      "fixedPageWidth" : 1170,
      "headerBgColor" : "rgba(0, 0, 0, 0)",
      "isHeaderPinned" : false,
      "isHeroUnderHeader" : false,
      "isPageWidthFixed" : true,
      "showHeader" : true,
      "showHero" : true
    },
    "componentName" : "siteforce:themeLayoutStarter",
    "id" : "8c53d953-3fbd-4c4b-a889-987bb7f1dd47",
    "label" : "ServiceNotAvailable",
    "regions" : [ {
      "id" : "e537ea2c-ac6d-4d0b-8810-16adde0fb580",
      "regionName" : "themeHeader",
      "type" : "region"
    }, {
      "id" : "fb6ff624-99bb-449b-895f-9e21590063a8",
      "regionName" : "themeFooter",
      "type" : "region"
    } ],
    "type" : "view"
  } ]
}