{
  "appPageId" : "26f3a209-dc55-4264-ad2b-8c6fd9290193",
  "componentName" : "siteforce:sldsOneColLayout",
  "id" : "7045673e-bad7-45d1-b791-c6c3e28977a3",
  "label" : "File Related List",
  "regions" : [ {
    "id" : "02c10b5c-b7da-4fb3-96e7-79d3cac61c4a",
    "regionName" : "header",
    "type" : "region"
  }, {
    "components" : [ {
      "componentAttributes" : {
        "customTitle" : "",
        "parentRecordId" : "{!recordId}",
        "relatedListName" : "{!relationshipApiName}",
        "showBreadCrumbs" : true,
        "showCustomTitle" : false,
        "showManualRefreshButton" : true,
        "showRowNumbers" : true
      },
      "componentName" : "forceCommunity:relatedList",
      "id" : "4ad8c266-d174-42ab-bcd0-23681644409e",
      "renderPriority" : "NEUTRAL",
      "renditionMap" : { },
      "type" : "component"
    } ],
    "id" : "6a350bd9-331b-44db-9332-6e84945f9b19",
    "regionName" : "content",
    "type" : "region"
  }, {
    "id" : "da17120a-7db3-4dc5-b08c-9e640d010084",
    "regionName" : "footer",
    "type" : "region"
  } ],
  "themeLayoutType" : "Inner",
  "type" : "view",
  "viewType" : "relatedlist-069"
}