{
  "appPageId" : "26f3a209-dc55-4264-ad2b-8c6fd9290193",
  "componentName" : "siteforce:sldsOneColLayout",
  "id" : "dfd0f93e-308b-4126-b55c-d314158ba83c",
  "label" : "File Detail",
  "regions" : [ {
    "id" : "2448d047-7dce-41fb-9806-45c0e3364329",
    "regionName" : "header",
    "type" : "region"
  }, {
    "components" : [ {
      "componentAttributes" : { },
      "componentName" : "forceCommunity:fileDetailPage",
      "id" : "c15b5847-3675-4e12-becc-aca5986aa676",
      "renderPriority" : "NEUTRAL",
      "renditionMap" : { },
      "type" : "component"
    } ],
    "id" : "daf70c20-b5f3-4da7-b51e-faa3342a7616",
    "regionName" : "content",
    "type" : "region"
  }, {
    "id" : "d1931178-9088-463d-847f-eeb824ebe1b3",
    "regionName" : "footer",
    "type" : "region"
  } ],
  "themeLayoutType" : "Inner",
  "type" : "view",
  "viewType" : "detail-069"
}