{
  "appPageId" : "26f3a209-dc55-4264-ad2b-8c6fd9290193",
  "componentName" : "siteforce:sldsOneColLayout",
  "id" : "9e701bd4-d41d-41c3-aebd-cd559e7bcfe1",
  "label" : "Group Related List",
  "regions" : [ {
    "id" : "632948fd-6268-4d94-a51d-14c2a0950226",
    "regionName" : "header",
    "type" : "region"
  }, {
    "components" : [ {
      "componentAttributes" : {
        "customTitle" : "",
        "parentRecordId" : "{!recordId}",
        "relatedListName" : "{!relationshipApiName}",
        "showBreadCrumbs" : true,
        "showCustomTitle" : false,
        "showManualRefreshButton" : true,
        "showRowNumbers" : true
      },
      "componentName" : "forceCommunity:relatedList",
      "id" : "b7d86259-35d8-477b-829e-3b790f6f0fcb",
      "renderPriority" : "NEUTRAL",
      "renditionMap" : { },
      "type" : "component"
    } ],
    "id" : "67c99480-02c2-475f-9fd1-0e25827e0af1",
    "regionName" : "content",
    "type" : "region"
  }, {
    "id" : "a133b5bc-705b-4943-855b-85e63785a486",
    "regionName" : "footer",
    "type" : "region"
  } ],
  "themeLayoutType" : "Inner",
  "type" : "view",
  "viewType" : "relatedlist-0F9"
}