{
  "appPageId" : "26f3a209-dc55-4264-ad2b-8c6fd9290193",
  "componentName" : "siteforce:sldsTwoCol84SidebarFeaturedLayout",
  "id" : "4d8028a8-5a82-49bb-a590-7b26ac9f15c0",
  "label" : "Topic Detail",
  "regions" : [ {
    "components" : [ {
      "componentAttributes" : {
        "bannerText" : "",
        "bannerTextWithKnowledge" : "Explore other <a href=\"javascript:void(0)\" class=\"headlineArticles\">articles</a> and <a href=\"javascript:void(0)\" class=\"headlineDiscussions\">discussions</a> on this topic.",
        "bannerTextWithoutKnowledge" : "Explore other <a href=\"javascript:void(0)\" class=\"headlineDiscussions\">discussions</a> on this topic.",
        "pageType" : "topic",
        "showSubTopics" : true,
        "title" : "Welcome!",
        "uniqueNameOrId" : ""
      },
      "componentName" : "forceCommunity:headline",
      "id" : "73527a01-355f-4adb-ada3-b000234d2be0",
      "renderPriority" : "NEUTRAL",
      "renditionMap" : { },
      "type" : "component"
    } ],
    "id" : "fdcfc549-b806-4c92-8bb0-b57cc790b511",
    "regionName" : "header",
    "type" : "region"
  }, {
    "components" : [ {
      "componentAttributes" : {
        "title" : "Description",
        "topicId" : "{!recordId}"
      },
      "componentName" : "forceCommunity:topicDescription",
      "id" : "9bf79a88-5845-4459-9c34-6db06e81a9bb",
      "renderPriority" : "NEUTRAL",
      "renditionMap" : { },
      "type" : "component"
    }, {
      "componentAttributes" : {
        "showArticles" : true,
        "showFollowers" : true,
        "showPosts" : true,
        "showTalkingAbout" : true,
        "topicId" : "{!recordId}"
      },
      "componentName" : "forceCommunity:topicMetrics",
      "id" : "7e43353b-a83c-452a-b075-81eeb4e590be",
      "renderPriority" : "NEUTRAL",
      "renditionMap" : { },
      "type" : "component"
    }, {
      "componentAttributes" : {
        "buttonAlignment" : "center",
        "buttonBgColor" : "",
        "buttonBgHoverColor" : "",
        "buttonBorderColor" : "",
        "buttonMaxWidth" : 100,
        "buttonRadius" : 0,
        "buttonTextColor" : "",
        "buttonTextHoverColor" : "",
        "confirmationMessage" : "Got it!",
        "followUpPromptLabel" : "Can we close your question?",
        "isAskFollowPromptEnabled" : true,
        "isIncludeArticlesEnabled" : false,
        "isIncludeDiscussionsEnabled" : true,
        "isInitialSatisfactionPromptEnabled" : true,
        "isPublisherDeflectionEnabled" : true,
        "label" : "Ask a Question",
        "maxSuggestions" : 5,
        "satisfactionPromptLabel" : "Did we help to answer your question?",
        "showDetails" : false,
        "showTopics" : true,
        "uneditableTopics" : false
      },
      "componentName" : "forceCommunity:askCommunity",
      "id" : "5e5f93de-0d13-4f20-8464-b571d216498f",
      "renderPriority" : "NEUTRAL",
      "renditionMap" : { },
      "type" : "component"
    }, {
      "componentAttributes" : {
        "buttonAlignment" : "center",
        "buttonBgColor" : "",
        "buttonBgHoverColor" : "",
        "buttonBorderColor" : "",
        "buttonMaxWidth" : 100,
        "buttonRadius" : 0,
        "buttonTextColor" : "",
        "buttonTextHoverColor" : "",
        "recordId" : "{!recordId}",
        "showNotificationMenu" : true
      },
      "componentName" : "forceCommunity:follow",
      "id" : "a27256cf-44d2-448e-8204-081eaa1844fc",
      "renderPriority" : "NEUTRAL",
      "renditionMap" : { },
      "type" : "component"
    } ],
    "id" : "7e2acd31-a41c-4f09-bcda-ab113ff82587",
    "regionName" : "featured",
    "type" : "region"
  }, {
    "components" : [ {
      "componentAttributes" : {
        "activeTab" : "{!selectedTab}",
        "articleListPageSize" : 10,
        "articleTabLabel" : "Articles",
        "defaultSortOrderCompactFeed" : "Relevance",
        "defaultSortOrderFullFeed" : "Relevance",
        "discussionTabLabel" : "Discussions",
        "searchTerm" : "{!term}",
        "showArticleTab" : true,
        "showCompactFeedInDiscussion" : true,
        "topicId" : "{!recordId}"
      },
      "componentName" : "forceCommunity:resultsList",
      "id" : "eafa36cd-d3ce-4b1a-94e6-4d5ed598d7d8",
      "renderPriority" : "NEUTRAL",
      "renditionMap" : { },
      "type" : "component"
    } ],
    "id" : "4457f115-9a24-4c25-8c0d-495b042d40ab",
    "regionName" : "content",
    "type" : "region"
  }, {
    "components" : [ {
      "componentAttributes" : {
        "showTopicsMetric" : true,
        "title" : "Related Topics",
        "topicId" : "{!recordId}"
      },
      "componentName" : "forceCommunity:relatedTopics",
      "id" : "67f31558-ae58-48a6-afdd-e94f45917b02",
      "renderPriority" : "NEUTRAL",
      "renditionMap" : { },
      "type" : "component"
    }, {
      "componentAttributes" : {
        "title" : "Knowledgeable People",
        "topicId" : "{!recordId}"
      },
      "componentName" : "forceCommunity:knowledgeablePeople",
      "id" : "af479a0e-bc5d-48d8-be95-b1f8e82f918e",
      "renderPriority" : "NEUTRAL",
      "renditionMap" : { },
      "type" : "component"
    } ],
    "id" : "aa43f4cc-6ce8-47c7-8c84-5ece02a3220f",
    "regionName" : "sidebar",
    "type" : "region"
  }, {
    "components" : [ {
      "componentAttributes" : {
        "askCommunityLabel" : "Ask a Question",
        "buttonBgColor" : "",
        "buttonBgHoverColor" : "",
        "buttonBorderColor" : "",
        "buttonRadius" : 0,
        "buttonTextColor" : "",
        "buttonTextHoverColor" : "",
        "buttonTwoBgColor" : "",
        "buttonTwoBgHoverColor" : "",
        "buttonTwoBorderColor" : "",
        "buttonTwoRadius" : 0,
        "buttonTwoTextColor" : "",
        "buttonTwoTextHoverColor" : "",
        "confirmationMessage" : "Got it!",
        "contactSupportLabel" : "Contact Support",
        "followUpPromptLabel" : "Can we close your question?",
        "headerLabel" : "Don't see what you're looking for?",
        "isAskFollowPromptEnabled" : true,
        "isIncludeArticlesEnabled" : false,
        "isIncludeDiscussionsEnabled" : true,
        "isInitialSatisfactionPromptEnabled" : true,
        "isPublisherDeflectionEnabled" : true,
        "maxSuggestions" : 5,
        "satisfactionPromptLabel" : "Did we help to answer your question?",
        "showDetails" : false,
        "showTopics" : true
      },
      "componentName" : "siteforce:napiliFooter",
      "id" : "fac6167b-4694-4be6-82fe-bfc0666f3ded",
      "renderPriority" : "NEUTRAL",
      "renditionMap" : { },
      "type" : "component"
    } ],
    "id" : "198350ca-268d-4940-babd-197b9d2f43f7",
    "regionName" : "footer",
    "type" : "region"
  }, {
    "components" : [ {
      "componentAttributes" : {
        "customHeadTags" : "",
        "description" : "{!Record.Description}",
        "title" : "{!Record._Title}"
      },
      "componentName" : "forceCommunity:seoAssistant",
      "id" : "33ada3b3-1fc6-4ed6-a43b-49e8ae321b6a",
      "renditionMap" : { },
      "type" : "component"
    } ],
    "id" : "8259b4c1-1ef5-498c-ae8f-5083ebf9c031",
    "regionName" : "sfdcHiddenRegion",
    "type" : "region"
  } ],
  "themeLayoutType" : "Inner",
  "type" : "view",
  "viewType" : "topic"
}