{
  "activeBrandingSetId" : "3f9f3c99-3164-4576-b917-bb6e5bfe2c2a",
  "customCSS" : "",
  "developerName" : "helpCenter",
  "id" : "e9a8ba18-0ce6-4ba1-952e-c414bcb00559",
  "label" : "Help Center",
  "layouts" : {
    "Home" : "e6b2b360-5d8a-4520-8ac9-0f5a64e5bb85",
    "Inner" : "e636f347-e63b-48d9-a082-1e6aef710c3d",
    "Login" : "790fcab3-e72c-487e-9373-285169dfd473",
    "ServiceNotAvailable" : "d4531af1-acb6-40fa-9250-0b02b1dadd23"
  },
  "type" : "theme",
  "views" : [ {
    "componentAttributes" : { },
    "componentName" : "salesforceIdentity:loginBody2",
    "id" : "790fcab3-e72c-487e-9373-285169dfd473",
    "label" : "Login",
    "regions" : [ {
      "id" : "832e86cf-b564-4c22-901f-cce56d7da587",
      "regionName" : "header",
      "type" : "region"
    }, {
      "id" : "f37a40ed-0e48-43f5-a1f7-eae60e3231e5",
      "regionName" : "content",
      "type" : "region"
    }, {
      "id" : "0c022562-85b7-4279-ad82-8fc4b47a5266",
      "regionName" : "footer",
      "type" : "region"
    } ],
    "type" : "view"
  }, {
    "componentAttributes" : {
      "fixedPageWidth" : 1280,
      "headerBgColor" : "rgba(255, 255, 255, 0.8)",
      "isHeaderPinned" : false,
      "isHeroUnderHeader" : false,
      "isPageWidthFixed" : true,
      "showHeader" : true,
      "showHero" : false
    },
    "componentName" : "siteforce:themeLayoutStarter",
    "id" : "e636f347-e63b-48d9-a082-1e6aef710c3d",
    "label" : "Default",
    "regions" : [ {
      "components" : [ {
        "componentAttributes" : {
          "background" : "background: #240E0F",
          "backgroundOverlayColor" : "rgba(0, 0, 0, 0.3)",
          "borderBottomColor" : "#240e0f",
          "centerAlignLogo" : false,
          "collapseNavMenu" : false,
          "containHeader" : true,
          "containHeaderWidth" : 1280,
          "dropdownBackgroundColor" : "#FFFFFF",
          "dropdownBackgroundHoverColor" : "#F3F2F2",
          "dropdownBorderColor" : "#F0F0F0",
          "dropdownTextColor" : "rgba(0, 0, 0, 0.8)",
          "dropdownTextHoverColor" : "rgba(0, 0, 0, 0.8)",
          "headerHeight" : 16,
          "linkActiveBorderColor" : "rgba(0, 0, 0, 0.7)",
          "linkColor" : "rgba(0, 0, 0, 0.8)",
          "linkHoverColor" : "rgba(0, 0, 0, 0.7)",
          "linkTextShadowColor" : "rgba(255, 255, 255, 0)",
          "logoWidth" : 150,
          "searchStyle" : "expanded",
          "showAppLauncher" : false,
          "showNavMenuOnLeft" : false,
          "showNotifications" : false,
          "showProfileMenu" : false,
          "showSearch" : true
        },
        "componentName" : "forceCommunity:themeHeaderCompact",
        "id" : "ed23b17b-b15b-4c4e-85ba-002a7f200697",
        "regions" : [ {
          "components" : [ {
            "componentAttributes" : {
              "backgroundColor" : "#FFFFFF",
              "borderColor" : "rgba(0, 0, 0, 0.8)",
              "borderRadius" : 20,
              "borderStyle" : "outline",
              "buttonColor" : "rgb(219, 129, 106)",
              "buttonHoverColor" : "rgb(181, 104, 84)",
              "crossObjectTypeaheadApiNames" : "",
              "iconColor" : "rgb(255, 255, 255)",
              "placeholderText" : "Search...",
              "placeholderTextColor" : "rgba(0, 0, 0, 0.6)",
              "showSearchButton" : true,
              "textColor" : "rgba(0, 0, 0, 0.8)",
              "typeaheadResultMax" : 5,
              "useTypeahead" : true
            },
            "componentName" : "forceCommunity:themeSearch",
            "id" : "0feb86fa-85c6-4882-b276-45c4bbab02a6",
            "renditionMap" : { },
            "type" : "component"
          } ],
          "id" : "cde69b34-7bfd-4309-a2b6-2f8fd6ed3e44",
          "regionName" : "search",
          "type" : "region"
        }, {
          "components" : [ {
            "componentAttributes" : {
              "navAlignment" : "left",
              "navItemThreshold" : 4,
              "navigationMenuEditorRefresh" : ""
            },
            "componentName" : "forceCommunity:themeNav",
            "id" : "6e013f68-2d3b-400d-9a62-0cf23659ab41",
            "renditionMap" : { },
            "type" : "component"
          } ],
          "id" : "101dbd62-6c71-4361-b451-7fd1a30a72af",
          "regionName" : "nav",
          "type" : "region"
        } ],
        "renditionMap" : { },
        "type" : "component"
      } ],
      "id" : "c05d09c6-499a-4c4e-b530-46a374fc7f23",
      "regionName" : "themeHeader",
      "type" : "region"
    }, {
      "components" : [ {
        "componentAttributes" : {
          "bgImage" : "background: #FFFFFF url(/sfsites/assets/themes/helpCenter-background.jpg) center /cover",
          "bgOverlayColor" : "rgba(0, 0, 0, 0.46)",
          "captionText" : "Get Excited",
          "captionTextColor" : "rgba(255, 255, 255, 1)",
          "captionTextShadowColor" : "rgba(0, 0, 0, 0)",
          "contentAlignment" : "center",
          "contentWidth" : 65,
          "ctaBtnOneBgColor" : "rgba(0, 0, 0, 1)",
          "ctaBtnOneBgHoverColor" : "rgba(0, 0, 255, 1)",
          "ctaBtnOneBorderColor" : "rgba(0, 0, 0, 1)",
          "ctaBtnOneOpenNewTab" : false,
          "ctaBtnOneText" : "Let's go!",
          "ctaBtnOneTextColor" : "rgba(255, 255, 255, 1)",
          "ctaBtnOneTextHoverColor" : "rgba(255, 255, 255, 1)",
          "ctaBtnOneUrl" : "",
          "ctaBtnRadius" : 0,
          "ctaBtnTwoBgColor" : "rgba(255, 255, 255, 1)",
          "ctaBtnTwoBgHoverColor" : "rgba(0, 0, 255, 1)",
          "ctaBtnTwoBorderColor" : "rgba(0, 0, 0, 1)",
          "ctaBtnTwoOpenNewTab" : false,
          "ctaBtnTwoText" : "Help",
          "ctaBtnTwoTextColor" : "rgba(0, 0, 0, 1)",
          "ctaBtnTwoTextHoverColor" : "rgba(255, 255, 255, 1)",
          "ctaBtnTwoUrl" : "",
          "ctaShowBtnOne" : true,
          "ctaShowBtnTwo" : true,
          "fixedHeroWidth" : true,
          "heroHeight" : 162,
          "heroWidth" : 1280,
          "showCaption" : false,
          "showSubtitle" : true,
          "showTitle" : true,
          "subtitleText" : "Are you ready?",
          "subtitleTextColor" : "rgba(255, 255, 255, 1)",
          "subtitleTextShadowColor" : "rgba(0, 0, 0, 0)",
          "titleText" : "What can we help you with?",
          "titleTextColor" : "rgb(255, 255, 255)",
          "titleTextShadowColor" : "rgba(0, 0, 0, 0.5)",
          "type" : "showSearch"
        },
        "componentName" : "forceCommunity:themeHeroStarter",
        "id" : "96dc15fc-4889-426d-9c77-fa97b4273c29",
        "regions" : [ {
          "components" : [ {
            "componentAttributes" : {
              "backgroundColor" : "#FFFFFF",
              "borderColor" : "rgba(0, 0, 0, 0)",
              "borderRadius" : 25,
              "borderStyle" : "outline",
              "buttonColor" : "#db816a",
              "buttonHoverColor" : "#b56854",
              "crossObjectTypeaheadApiNames" : "",
              "iconColor" : "#FFFFFF",
              "placeholderText" : "Search the help center...",
              "placeholderTextColor" : "rgba(0, 0, 0, 0.6)",
              "publicDropdownBackgroundColor" : "#FFFFFF",
              "publicDropdownBackgroundHoverColor" : "#F3F2F2",
              "publicDropdownBorderColor" : "#F0F0F0",
              "publicDropdownTextColor" : "rgba(0, 0, 0, 0.8)",
              "publicDropdownTextHoverColor" : "rgba(0, 0, 0, 0.8)",
              "showSearchButton" : true,
              "textColor" : "rgba(0, 0, 0, 0.8)",
              "typeaheadResultMax" : 6,
              "useTypeahead" : true
            },
            "componentName" : "forceCommunity:themeSearchHero",
            "id" : "b0e4e5fe-2985-4797-bcfc-9bff7585e824",
            "renditionMap" : { },
            "type" : "component"
          } ],
          "id" : "e4bed4e7-1320-4259-9cd1-2b73c021acf2",
          "regionName" : "search",
          "type" : "region"
        } ],
        "renditionMap" : { },
        "type" : "component"
      } ],
      "id" : "bf46f36e-ed4b-433c-8b85-ebbcd1c6fe93",
      "regionName" : "themeHero",
      "type" : "region"
    }, {
      "components" : [ {
        "componentAttributes" : { },
        "componentName" : "forceCommunity:themeLogoSalesforce",
        "id" : "7f834d4d-d517-4287-a71a-7d03b0517ce5",
        "renditionMap" : { },
        "type" : "component"
      } ],
      "id" : "72b4e503-33fc-4918-9aa4-f460850827f3",
      "regionName" : "themeFooter",
      "type" : "region"
    } ],
    "type" : "view"
  }, {
    "componentAttributes" : {
      "fixedPageWidth" : 1280,
      "headerBgColor" : "rgba(255, 255, 255, 0.8)",
      "isHeaderPinned" : false,
      "isHeroUnderHeader" : true,
      "isPageWidthFixed" : true,
      "showHeader" : true,
      "showHero" : true
    },
    "componentName" : "siteforce:themeLayoutStarter",
    "id" : "e6b2b360-5d8a-4520-8ac9-0f5a64e5bb85",
    "label" : "Home",
    "regions" : [ {
      "components" : [ {
        "componentAttributes" : {
          "background" : "background: rgba(0,0,0,0)",
          "backgroundOverlayColor" : "rgba(0, 0, 0, 0.3)",
          "borderBottomColor" : "rgba(0, 0, 0, 0)",
          "containHeader" : true,
          "containHeaderWidth" : 1280,
          "headerHeight" : 16,
          "languageSelectorLabelColor" : "#ffffff",
          "linkColor" : "#ffffff",
          "logoWidth" : 150,
          "showLanguageSelector" : false
        },
        "componentName" : "forceCommunity:themeHeaderHelpCenter",
        "id" : "86afb25a-ffe0-4a46-819b-fe919d6fef85",
        "regions" : [ {
          "components" : [ {
            "componentAttributes" : {
              "label" : "Preferred Language",
              "pickerAlignment" : "center"
            },
            "componentName" : "forceCommunity:languageSelector43",
            "id" : "4ab29752-8f20-4a7d-b0b5-ae1343b2554d",
            "renditionMap" : { },
            "type" : "component"
          } ],
          "id" : "0c341bc8-6550-4d72-8e5f-76eebc2cefae",
          "regionName" : "languageSelector",
          "type" : "region"
        } ],
        "renditionMap" : { },
        "type" : "component"
      } ],
      "id" : "555c3345-fc6d-4634-9b9b-987afbe64f31",
      "regionName" : "themeHeader",
      "type" : "region"
    }, {
      "components" : [ {
        "componentAttributes" : {
          "bgImage" : "background: #FFFFFF url(/sfsites/assets/themes/helpCenter-background.jpg) center /cover",
          "bgOverlayColor" : "rgba(0, 0, 0, 0.46)",
          "captionText" : "Get Excited",
          "captionTextColor" : "rgba(255, 255, 255, 1)",
          "captionTextShadowColor" : "rgba(0, 0, 0, 0)",
          "contentAlignment" : "center",
          "contentWidth" : 65,
          "ctaBtnOneBgColor" : "rgba(0, 0, 0, 1)",
          "ctaBtnOneBgHoverColor" : "rgba(0, 0, 255, 1)",
          "ctaBtnOneBorderColor" : "rgba(0, 0, 0, 1)",
          "ctaBtnOneOpenNewTab" : false,
          "ctaBtnOneText" : "Let's go!",
          "ctaBtnOneTextColor" : "rgba(255, 255, 255, 1)",
          "ctaBtnOneTextHoverColor" : "rgba(255, 255, 255, 1)",
          "ctaBtnOneUrl" : "",
          "ctaBtnRadius" : 0,
          "ctaBtnTwoBgColor" : "rgba(255, 255, 255, 1)",
          "ctaBtnTwoBgHoverColor" : "rgba(0, 0, 255, 1)",
          "ctaBtnTwoBorderColor" : "rgba(0, 0, 0, 1)",
          "ctaBtnTwoOpenNewTab" : false,
          "ctaBtnTwoText" : "Help",
          "ctaBtnTwoTextColor" : "rgba(0, 0, 0, 1)",
          "ctaBtnTwoTextHoverColor" : "rgba(255, 255, 255, 1)",
          "ctaBtnTwoUrl" : "",
          "ctaShowBtnOne" : true,
          "ctaShowBtnTwo" : true,
          "fixedHeroWidth" : true,
          "heroHeight" : 162,
          "heroWidth" : 1280,
          "showCaption" : false,
          "showSubtitle" : true,
          "showTitle" : true,
          "subtitleText" : "Are you ready?",
          "subtitleTextColor" : "rgba(255, 255, 255, 1)",
          "subtitleTextShadowColor" : "rgba(0, 0, 0, 0)",
          "titleText" : "What can we help you with?",
          "titleTextColor" : "rgb(255, 255, 255)",
          "titleTextShadowColor" : "rgba(0, 0, 0, 0.5)",
          "type" : "showSearch"
        },
        "componentName" : "forceCommunity:themeHeroStarter",
        "id" : "31cb307c-cea9-4744-89ff-aee65fbf9e05",
        "regions" : [ {
          "components" : [ {
            "componentAttributes" : {
              "backgroundColor" : "#FFFFFF",
              "borderColor" : "rgba(0, 0, 0, 0)",
              "borderRadius" : 25,
              "borderStyle" : "outline",
              "buttonColor" : "#db816a",
              "buttonHoverColor" : "#b56854",
              "crossObjectTypeaheadApiNames" : "",
              "iconColor" : "#FFFFFF",
              "placeholderText" : "Search the help center...",
              "placeholderTextColor" : "rgba(0, 0, 0, 0.6)",
              "publicDropdownBackgroundColor" : "#FFFFFF",
              "publicDropdownBackgroundHoverColor" : "#F3F2F2",
              "publicDropdownBorderColor" : "#F0F0F0",
              "publicDropdownTextColor" : "rgba(0, 0, 0, 0.8)",
              "publicDropdownTextHoverColor" : "rgba(0, 0, 0, 0.8)",
              "showSearchButton" : true,
              "textColor" : "rgba(0, 0, 0, 0.8)",
              "typeaheadResultMax" : 6,
              "useTypeahead" : true
            },
            "componentName" : "forceCommunity:themeSearchHero",
            "id" : "749fa307-8650-4ff2-adc6-f1ff23c8524c",
            "renditionMap" : { },
            "type" : "component"
          } ],
          "id" : "b2e3aaea-0d31-45b8-8422-0c9b5df9ca34",
          "regionName" : "search",
          "type" : "region"
        } ],
        "renditionMap" : { },
        "type" : "component"
      } ],
      "id" : "867c154f-e7b0-4458-9748-5c74a1e914dd",
      "regionName" : "themeHero",
      "type" : "region"
    }, {
      "components" : [ {
        "componentAttributes" : { },
        "componentName" : "forceCommunity:themeLogoSalesforce",
        "id" : "94eb917f-f7e8-4380-9638-0a428a16ce9e",
        "renditionMap" : { },
        "type" : "component"
      } ],
      "id" : "577c4ad6-d292-4b2e-9b50-be4c48ed0fe7",
      "regionName" : "themeFooter",
      "type" : "region"
    } ],
    "type" : "view"
  }, {
    "componentAttributes" : {
      "fixedPageWidth" : 1170,
      "headerBgColor" : "rgba(0, 0, 0, 0)",
      "isHeaderPinned" : false,
      "isHeroUnderHeader" : false,
      "isPageWidthFixed" : true,
      "showHeader" : true,
      "showHero" : true
    },
    "componentName" : "siteforce:themeLayoutStarter",
    "id" : "d4531af1-acb6-40fa-9250-0b02b1dadd23",
    "label" : "ServiceNotAvailable",
    "regions" : [ {
      "id" : "673dd4d6-70a6-4c1e-888e-f8eeebc37c2b",
      "regionName" : "themeHeader",
      "type" : "region"
    }, {
      "id" : "040099de-cfb8-469d-baba-5524e7602784",
      "regionName" : "themeFooter",
      "type" : "region"
    } ],
    "type" : "view"
  } ]
}