<?xml version="1.0" encoding="UTF-8"?>
<CustomTab xmlns="http://soap.sforce.com/2006/04/metadata">
    <label>Foundations Setup</label>
    <motif>Custom251: TV Widescreen</motif>
    <page>fferpcore__ErpMessaging</page>
</CustomTab>
