<?xml version="1.0" encoding="UTF-8"?>
<CustomTab xmlns="http://soap.sforce.com/2006/04/metadata">
    <description>Workspace for Revenue Management</description>
    <flexiPage>ffrrwksp__revenueManagementWorkspace</flexiPage>
    <label>Revenue Management Workspace</label>
    <motif>Custom330: TV Widescreen</motif>
</CustomTab>
