<?xml version="1.0" encoding="UTF-8"?>
<CustomTab xmlns="http://soap.sforce.com/2006/04/metadata">
    <description>Created by Lightning App Builder</description>
    <flexiPage>My_Sales_Dashboard</flexiPage>
    <label>My Sales Dashboard</label>
    <motif>Custom17: Sack</motif>
</CustomTab>
