<?xml version="1.0" encoding="UTF-8"?>
<CustomTab xmlns="http://soap.sforce.com/2006/04/metadata">
    <description>Opens a page where you can search for resources using multiple criteria.</description>
    <label>Search Resources</label>
    <motif>Custom263: TV Widescreen</motif>
    <page>pse__SearchResourcesForward</page>
</CustomTab>
