<?xml version="1.0" encoding="UTF-8"?>
<CustomTab xmlns="http://soap.sforce.com/2006/04/metadata">
    <label>Time Entry</label>
    <motif>Custom263: TV Widescreen</motif>
    <page>pse__PSATimecardEntryForward</page>
</CustomTab>
