{
  "activeViewId" : "6622ee85-a1a1-4e20-b0f2-bcaecfae46d2",
  "appPageId" : "a18e22dd-630b-46a8-99b1-564a59111458",
  "configurationTags" : [ ],
  "id" : "d15abe65-5989-4751-8d28-ce78ac6aedf3",
  "label" : "Case List",
  "routeType" : "list-500",
  "type" : "route",
  "urlPrefix" : "case"
}