{
  "activeViewId" : "45337c55-d60a-4fcc-a22d-c952f9476749",
  "appPageId" : "ba4f894b-a51a-433b-8aec-677d62e957dc",
  "configurationTags" : [ ],
  "id" : "e9f3b861-43c7-4e3b-aed5-8612dac4ae91",
  "label" : "Check Password",
  "routeType" : "check-password",
  "type" : "route",
  "urlPrefix" : "CheckPasswordResetEmail"
}