{
  "activeViewId" : "43b22dfa-f3c5-48cc-91a8-6c903071d86b",
  "appPageId" : "a18e22dd-630b-46a8-99b1-564a59111458",
  "configurationTags" : [ ],
  "id" : "45dabce2-0891-4cca-9dbc-145322604a50",
  "label" : "File Detail",
  "routeType" : "detail-069",
  "type" : "route",
  "urlPrefix" : "contentdocument"
}