{
  "activeViewId" : "523b29a2-6f54-40ad-89ec-0225eb61db9f",
  "appPageId" : "a18e22dd-630b-46a8-99b1-564a59111458",
  "configurationTags" : [ ],
  "id" : "bf659f25-b419-40b9-8507-1ea6faedf11a",
  "label" : "Group Related List",
  "routeType" : "relatedlist-0F9",
  "type" : "route",
  "urlPrefix" : "group"
}