{
  "activeViewId" : "c1a53204-86d4-4f03-a764-8d3fa11a64c4",
  "appPageId" : "a18e22dd-630b-46a8-99b1-564a59111458",
  "configurationTags" : [ ],
  "id" : "74068044-5957-480f-9905-7a05cc083d2d",
  "label" : "Group List",
  "routeType" : "list-0F9",
  "type" : "route",
  "urlPrefix" : "group"
}