{
  "activeViewId" : "ce7bccff-591b-4b87-a18b-b061dc5d052f",
  "appPageId" : "ba4f894b-a51a-433b-8aec-677d62e957dc",
  "configurationTags" : [ ],
  "id" : "75cbd5fe-e194-4b73-a904-3bec56858f48",
  "label" : "Login Error",
  "routeType" : "login-error",
  "type" : "route",
  "urlPrefix" : "error"
}