{
  "activeViewId" : "93d2ce4c-96a8-4335-bbbb-d7f847c75567",
  "appPageId" : "ba4f894b-a51a-433b-8aec-677d62e957dc",
  "configurationTags" : [ ],
  "id" : "7838af7e-e260-43cb-b645-ec4c60255eb6",
  "label" : "Register",
  "routeType" : "self-register",
  "type" : "route",
  "urlPrefix" : "SelfRegister"
}