{
  "activeViewId" : "87831872-a64b-4a7a-9722-43bccb20305b",
  "appPageId" : "a18e22dd-630b-46a8-99b1-564a59111458",
  "configurationTags" : [ ],
  "id" : "41871141-f566-43a9-948d-c10ce278b895",
  "label" : "Related Record List",
  "pageAccess" : "UseParent",
  "routeType" : "relatedlist",
  "type" : "route",
  "urlPrefix" : "relatedlist"
}