{
  "activeViewId" : "e1ec747d-9933-4cd0-bccf-c4006896ae48",
  "appPageId" : "a18e22dd-630b-46a8-99b1-564a59111458",
  "configurationTags" : [ ],
  "id" : "8f8f5bc4-0beb-41fc-ac0c-52a0019d7663",
  "label" : "Search",
  "pageAccess" : "UseParent",
  "routeType" : "global-search",
  "type" : "route",
  "urlPrefix" : "global-search"
}