{
  "activeViewId" : "b10018bf-98e4-4f97-820a-b77924400c61",
  "appPageId" : "a18e22dd-630b-46a8-99b1-564a59111458",
  "configurationTags" : [ ],
  "id" : "e26813a3-7f54-4384-821c-cdefd291ee24",
  "label" : "Skill Analyser",
  "pageAccess" : "UseParent",
  "routeType" : "custom-skill-analyser",
  "type" : "route",
  "urlPrefix" : "skill-analyser"
}