{
  "activeViewId" : "7807836a-7d01-4961-848f-65d25d0f346b",
  "appPageId" : "a18e22dd-630b-46a8-99b1-564a59111458",
  "configurationTags" : [ ],
  "id" : "4c4cc29b-d393-4049-bbef-a45926c2c6be",
  "label" : "Topic Catalog",
  "pageAccess" : "UseParent",
  "routeType" : "topic-catalog",
  "type" : "route",
  "urlPrefix" : "topiccatalog"
}