{
  "appPageId" : "e4f43b6d-c6c5-4237-8a9a-154f462cb4b2",
  "componentName" : "siteforce:sldsTwoCol66Layout",
  "id" : "07e98997-4f06-4b6f-947d-2eef2849eb63",
  "label" : "Contact Support",
  "regions" : [ {
    "id" : "0bcb0db7-31a9-4778-92ad-eea2576b708f",
    "regionName" : "header",
    "type" : "region"
  }, {
    "id" : "339f8690-ecbc-428c-8759-4089edbc3c88",
    "regionName" : "content",
    "type" : "region"
  }, {
    "components" : [ {
      "componentAttributes" : {
        "askConfirmationQuestion" : true,
        "confirmationMessageLabel" : "Got it!",
        "deflectionSubtitle" : "Find what you need here.",
        "deflectionTitle" : "Need Answers Fast?",
        "firstQuestion" : "Did this content solve your issue?",
        "maxResults" : 6,
        "measureDeflection" : true,
        "redirectUrl" : "",
        "secondQuestion" : "Stop creating your case?",
        "showArticles" : true,
        "showDiscussions" : false,
        "topicId" : ""
      },
      "componentName" : "forceCommunity:caseDeflection",
      "id" : "6aca7f3e-4f5d-414c-a1ef-dd78e893b27b",
      "renderPriority" : "NEUTRAL",
      "renditionMap" : { },
      "type" : "component"
    } ],
    "id" : "3dfc0b5e-3e57-4bcf-b4a3-17645dbec4b6",
    "regionName" : "sidebar",
    "type" : "region"
  }, {
    "id" : "c5c1bf7c-19ce-4f9e-9bac-720762b468c7",
    "regionName" : "footer",
    "type" : "region"
  }, {
    "components" : [ {
      "componentAttributes" : {
        "customHeadTags" : "",
        "description" : "",
        "title" : "Contact Support"
      },
      "componentName" : "forceCommunity:seoAssistant",
      "id" : "22d8f074-da69-44c3-bae4-630704179f5c",
      "renditionMap" : { },
      "type" : "component"
    } ],
    "id" : "5f491dd9-50bb-4c61-b27a-0821617a4f9d",
    "regionName" : "sfdcHiddenRegion",
    "type" : "region"
  } ],
  "themeLayoutType" : "Inner",
  "type" : "view",
  "viewType" : "contactsupport"
}