{
  "appPageId" : "e4f43b6d-c6c5-4237-8a9a-154f462cb4b2",
  "componentName" : "siteforce:sldsOneColLayout",
  "id" : "1ca4be59-b206-4316-a435-29ea063a6081",
  "label" : "File Detail",
  "regions" : [ {
    "id" : "cf01d928-48b3-4fc5-90ec-bfc57fd002c7",
    "regionName" : "header",
    "type" : "region"
  }, {
    "components" : [ {
      "componentAttributes" : { },
      "componentName" : "forceCommunity:fileDetailPage",
      "id" : "ec69c2a2-5778-4ccd-900f-820d5c733fa1",
      "renderPriority" : "NEUTRAL",
      "renditionMap" : { },
      "type" : "component"
    } ],
    "id" : "c59e8b85-033e-434f-b616-9370e63f859f",
    "regionName" : "content",
    "type" : "region"
  }, {
    "id" : "280a39b0-a8de-4e9c-bce1-d4f9e9405f53",
    "regionName" : "footer",
    "type" : "region"
  } ],
  "themeLayoutType" : "Inner",
  "type" : "view",
  "viewType" : "detail-069"
}