{
  "appPageId" : "a18e22dd-630b-46a8-99b1-564a59111458",
  "componentName" : "siteforce:sldsOneColLayout",
  "id" : "43b22dfa-f3c5-48cc-91a8-6c903071d86b",
  "label" : "File Detail",
  "regions" : [ {
    "id" : "8b686409-dc42-43ba-92ea-bf0f3a688a39",
    "regionName" : "header",
    "type" : "region"
  }, {
    "components" : [ {
      "componentAttributes" : { },
      "componentName" : "forceCommunity:fileDetailPage",
      "id" : "b4e82e00-d870-4da1-935b-7ff6131ba001",
      "renderPriority" : "NEUTRAL",
      "renditionMap" : { },
      "type" : "component"
    } ],
    "id" : "8208f8af-2335-42ac-9fda-52d05c182663",
    "regionName" : "content",
    "type" : "region"
  }, {
    "id" : "39e84cc8-ead1-428c-856e-bff09aedc84a",
    "regionName" : "footer",
    "type" : "region"
  } ],
  "themeLayoutType" : "Inner",
  "type" : "view",
  "viewType" : "detail-069"
}