{
  "appPageId" : "a18e22dd-630b-46a8-99b1-564a59111458",
  "componentName" : "siteforce:sldsOneColLayout",
  "id" : "c1a53204-86d4-4f03-a764-8d3fa11a64c4",
  "label" : "Group List",
  "regions" : [ {
    "id" : "5e4c6270-8739-49f7-9ed4-2bc7d8fb62a2",
    "regionName" : "header",
    "type" : "region"
  }, {
    "components" : [ {
      "componentAttributes" : { },
      "componentName" : "forceCommunity:groupObjectHome",
      "id" : "b68c7018-fb85-4c6b-8e26-115bb458379d",
      "renderPriority" : "NEUTRAL",
      "renditionMap" : { },
      "type" : "component"
    } ],
    "id" : "ae906f82-e0a6-4910-b285-8a29e483d7b6",
    "regionName" : "content",
    "type" : "region"
  }, {
    "id" : "4640f8b9-c33c-4b36-b59b-41b5936d130d",
    "regionName" : "footer",
    "type" : "region"
  } ],
  "themeLayoutType" : "Inner",
  "type" : "view",
  "viewType" : "list-0F9"
}