{
  "appPageId" : "a18e22dd-630b-46a8-99b1-564a59111458",
  "componentName" : "siteforce:sldsOneColLayout",
  "id" : "3f6e9ec3-402f-4eab-8e84-13ca1e582da3",
  "label" : "Home",
  "regions" : [ {
    "id" : "9ce408a5-f7f2-4e23-a986-416c10d61e21",
    "regionName" : "header",
    "type" : "region"
  }, {
    "id" : "39042c14-ca7d-4b33-8204-fe4449766292",
    "regionName" : "featured",
    "type" : "region"
  }, {
    "components" : [ {
      "componentAttributes" : { },
      "componentName" : "c:login",
      "id" : "28a2acd0-047d-45ba-9221-b70f7c21d7ba",
      "renderPriority" : "NEUTRAL",
      "renditionMap" : { },
      "type" : "component"
    } ],
    "id" : "cc9df4b2-6fef-422b-849a-e279a0cf83e5",
    "regionName" : "content",
    "type" : "region"
  }, {
    "components" : [ {
      "componentAttributes" : {
        "channel" : "DefaultChannel",
        "title" : ""
      },
      "componentName" : "forceCommunity:recommendations",
      "id" : "119408a5-c01e-46ff-b19d-5323ca4348f5",
      "renderPriority" : "NEUTRAL",
      "renditionMap" : { },
      "type" : "component"
    }, {
      "componentAttributes" : {
        "display" : "LEVELS_POINTS",
        "excludeInternalUsers" : false,
        "knowledgeLabel" : "Knows about",
        "numberOfUsers" : 5,
        "showContextUser" : false,
        "showTooltip" : false,
        "showUserRank" : false,
        "title" : "Leaderboard",
        "tooltipText" : "Earn points and climb to new levels when you contribute in the experience!"
      },
      "componentName" : "forceCommunity:reputationLeaderboard42",
      "id" : "1f7849e6-74ac-4ec0-937b-6cd3111f05dd",
      "renderPriority" : "NEUTRAL",
      "renditionMap" : { },
      "type" : "component"
    } ],
    "id" : "4b650ee2-371c-4312-89fc-698a6cc8a0ee",
    "regionName" : "sidebar",
    "type" : "region"
  }, {
    "id" : "5ca04a7f-9b5d-4ddf-a528-2a7a802f296a",
    "regionName" : "footer",
    "type" : "region"
  }, {
    "components" : [ {
      "componentAttributes" : {
        "customHeadTags" : "",
        "description" : "",
        "title" : "Home"
      },
      "componentName" : "forceCommunity:seoAssistant",
      "id" : "5523abfe-7ea9-41c1-aeba-38f31e44cfa2",
      "renditionMap" : { },
      "type" : "component"
    } ],
    "id" : "d9e8f247-ea53-4285-8269-be81e69bb014",
    "regionName" : "sfdcHiddenRegion",
    "type" : "region"
  } ],
  "themeLayoutType" : "7CZGqcEEXk6nKpOimoI18fGTLqW6B5",
  "type" : "view",
  "viewType" : "home"
}