{
  "appPageId" : "a18e22dd-630b-46a8-99b1-564a59111458",
  "componentName" : "siteforce:sldsOneColLayout",
  "id" : "4e019d57-bae7-4854-8652-3671c90a0891",
  "label" : "Onboarding",
  "regions" : [ {
    "id" : "ba9efece-c986-497a-bc1f-99ef634547cb",
    "regionName" : "header",
    "type" : "region"
  }, {
    "components" : [ {
      "componentAttributes" : { },
      "componentName" : "c:onboarding_MasterComponent",
      "id" : "ad93f78d-c7ce-4be9-9ada-73f4d4475a8a",
      "renderPriority" : "NEUTRAL",
      "renditionMap" : { },
      "type" : "component"
    } ],
    "id" : "56387166-6400-44f9-b334-41f15547e907",
    "regionName" : "content",
    "type" : "region"
  }, {
    "id" : "52dc4f2b-d2c8-4873-8c76-7231b89d9b7b",
    "regionName" : "footer",
    "type" : "region"
  }, {
    "components" : [ {
      "componentAttributes" : {
        "customHeadTags" : "",
        "description" : "",
        "title" : "Onboarding"
      },
      "componentName" : "forceCommunity:seoAssistant",
      "id" : "160175f1-792a-4380-b8ee-04b6335b4b9f",
      "renditionMap" : { },
      "type" : "component"
    } ],
    "id" : "6ad1bdb0-3159-4ab1-8586-b8201e588349",
    "regionName" : "sfdcHiddenRegion",
    "type" : "region"
  } ],
  "themeLayoutType" : "Inner",
  "type" : "view",
  "viewType" : "custom-onboarding"
}