{
  "appPageId" : "a18e22dd-630b-46a8-99b1-564a59111458",
  "componentName" : "siteforce:sldsOneColLayout",
  "id" : "87831872-a64b-4a7a-9722-43bccb20305b",
  "label" : "Related Record List",
  "regions" : [ {
    "id" : "d0d53e41-4c86-443f-b59b-a026e3017b7d",
    "regionName" : "header",
    "type" : "region"
  }, {
    "components" : [ {
      "componentAttributes" : {
        "customTitle" : "",
        "parentRecordId" : "{!recordId}",
        "relatedListName" : "{!relationshipApiName}",
        "showBreadCrumbs" : true,
        "showCustomTitle" : false,
        "showManualRefreshButton" : true,
        "showRowNumbers" : true
      },
      "componentName" : "forceCommunity:relatedList",
      "id" : "857d006c-379c-4418-b9e8-76822604fd63",
      "renderPriority" : "NEUTRAL",
      "renditionMap" : { },
      "type" : "component"
    } ],
    "id" : "7d8d39f6-a39a-434f-b945-09cfac514d04",
    "regionName" : "content",
    "type" : "region"
  }, {
    "id" : "a8c7c107-ede6-4fff-ba08-1c1e51040c58",
    "regionName" : "footer",
    "type" : "region"
  } ],
  "themeLayoutType" : "Inner",
  "type" : "view",
  "viewType" : "relatedlist"
}