{
  "appPageId" : "a18e22dd-630b-46a8-99b1-564a59111458",
  "componentName" : "siteforce:sldsOneColLayout",
  "id" : "a3e3ea8d-3683-4c90-ac37-762f9772c7b4",
  "label" : "User Profile",
  "regions" : [ {
    "id" : "d7dc87ee-06c7-4c6c-bdc1-79f64cb71644",
    "regionName" : "header",
    "type" : "region"
  }, {
    "components" : [ {
      "componentAttributes" : {
        "caseCreateLabel" : "Create Case",
        "caseFilterName" : "AllOpenCases",
        "caseHeaderLabel" : "My Cases",
        "casesTabLabel" : "Cases",
        "detailsTabLabel" : "Details",
        "feedTabLabel" : "Feed",
        "knowledgeableAboutTitle" : "Knows About",
        "maxTopics" : 5,
        "recognitionbuttonLabel" : "Give",
        "relatedTabLabel" : "Related",
        "showAllUpdates" : false,
        "showBadges" : true,
        "showFullPhotoAsCircle" : true,
        "showKnowledgeableAbout" : true,
        "showRelatedList" : true,
        "showReputationInInfluenceCard" : false,
        "showStats" : true,
        "userBadgesTitle" : "Recognition Badges",
        "userId" : "{!recordId}",
        "userStatsTitle" : "Influence"
      },
      "componentName" : "forceCommunity:userRecordHome",
      "id" : "13aba0a6-1a23-4b79-a14e-bee3c19ef37d",
      "renderPriority" : "NEUTRAL",
      "renditionMap" : { },
      "type" : "component"
    } ],
    "id" : "17ce33ab-596a-450f-ae02-7e5b88cf1eee",
    "regionName" : "content",
    "type" : "region"
  }, {
    "id" : "fc5b561f-8741-4ba9-b6ad-ea64978aa7fb",
    "regionName" : "footer",
    "type" : "region"
  } ],
  "themeLayoutType" : "Inner",
  "type" : "view",
  "viewType" : "detail-005"
}