{
  "activeBrandingSetId" : "5c696fdf-39a3-41e7-b5b4-201c0ba082e7",
  "customCSS" : "",
  "developerName" : "service",
  "id" : "b2dc57c7-46e2-4eed-9e41-87d3609b3e16",
  "label" : "Customer Service",
  "layouts" : {
    "Inner" : "34d1ee3e-a405-46b2-baa6-e17d032aa4fa",
    "Login" : "b6ad7587-69e0-40b5-94e9-6d65f22047c3",
    "ServiceNotAvailable" : "bfd55f7d-c8b9-4115-bef4-2e5e07492af1"
  },
  "type" : "theme",
  "views" : [ {
    "componentAttributes" : { },
    "componentName" : "salesforceIdentity:loginBody2",
    "id" : "b6ad7587-69e0-40b5-94e9-6d65f22047c3",
    "label" : "Login",
    "regions" : [ {
      "id" : "79eacdb8-5555-4906-8227-1f8372ba2503",
      "regionName" : "header",
      "type" : "region"
    }, {
      "id" : "f1db08cb-4145-4e65-9a0e-da2883e7c8f6",
      "regionName" : "content",
      "type" : "region"
    }, {
      "id" : "33684db3-17d3-40e7-9e16-f6a6839d804c",
      "regionName" : "footer",
      "type" : "region"
    } ],
    "type" : "view"
  }, {
    "componentAttributes" : {
      "IsDefaultHeaderHidden" : false,
      "IsDefaultNotificationsHidden" : false,
      "fixedPageWidth" : 1140,
      "isPageWidthFixed" : true
    },
    "componentName" : "siteforce:serviceBody",
    "id" : "34d1ee3e-a405-46b2-baa6-e17d032aa4fa",
    "label" : "Default",
    "regions" : [ {
      "id" : "bf739bee-8aab-4870-8cb4-84d5f94a701c",
      "regionName" : "customHeader",
      "type" : "region"
    }, {
      "components" : [ {
        "componentAttributes" : {
          "contineActionLabel" : "Ask the community",
          "continueLabel" : "Don’t see it?",
          "crossObjectTypeaheadApiNames" : [ {
            "isPublic" : true,
            "name" : "KnowledgeArticleVersion"
          }, {
            "isPublic" : true,
            "name" : "FeedItem"
          }, {
            "isPublic" : false,
            "name" : "Case"
          }, {
            "isPublic" : true,
            "name" : "CollaborationGroup"
          } ],
          "disableCrossObjectRelevance" : false,
          "enableAutocomplete" : true,
          "maxNumberOfResults" : 6,
          "placeholder" : "Search...",
          "questionResultsFirst" : false,
          "showContinueAction" : true,
          "showDetails" : false,
          "showTopics" : true,
          "signInActionLabel" : "Sign in to ask the community"
        },
        "componentName" : "forceCommunity:searchBox",
        "id" : "84d309b3-8014-4144-b7d8-d888ac1870e7",
        "renditionMap" : { },
        "type" : "component"
      } ],
      "id" : "39cedec9-4140-468c-b443-dda77ffbf7f8",
      "regionName" : "search",
      "type" : "region"
    }, {
      "components" : [ {
        "componentAttributes" : {
          "accountManagementLabel" : "Account Management",
          "communityBuilderLabel" : "Experience Builder",
          "communitySetupLabel" : "Salesforce Setup",
          "contactSupportLabel" : "Contact Support",
          "filterName" : "MyCases",
          "homeLabel" : "Home",
          "includeContactSupport" : true,
          "includeMessages" : false,
          "loginLabel" : "Login",
          "logoutLabel" : "Logout",
          "myAccountLabel" : "My Account",
          "showAccountManagement" : true,
          "showUserSettings" : true,
          "userSettingsLabel" : "My Settings",
          "viewProfileLabel" : "My Profile"
        },
        "componentName" : "selfService:userProfileMenu",
        "id" : "b55e8002-ded1-4a6e-bd2b-7764a415cf67",
        "renditionMap" : { },
        "type" : "component"
      } ],
      "id" : "53836729-7ba5-4f29-8f6d-29c203e7f124",
      "regionName" : "profileMenu",
      "type" : "region"
    }, {
      "components" : [ {
        "componentAttributes" : {
          "NavigationMenuEditorRefresh" : "",
          "hideAppLauncher" : false,
          "hideHomeText" : false
        },
        "componentName" : "forceCommunity:globalNavigation",
        "id" : "2eb37faf-482f-406f-957c-0f88834d0b1c",
        "renditionMap" : { },
        "type" : "component"
      } ],
      "id" : "2d96d1d9-0b96-4e7d-9d31-a486baa60793",
      "regionName" : "navBar",
      "type" : "region"
    }, {
      "id" : "319adfd3-98a7-4902-bbe3-ef46a43a5b4a",
      "regionName" : "customRegion",
      "type" : "region"
    }, {
      "id" : "a1959233-39ea-4d58-9e90-b7619377f7b2",
      "regionName" : "footer",
      "type" : "region"
    } ],
    "type" : "view"
  }, {
    "componentAttributes" : {
      "fixedPageWidth" : 1170,
      "headerBgColor" : "rgba(0, 0, 0, 0)",
      "isHeaderPinned" : false,
      "isHeroUnderHeader" : false,
      "isPageWidthFixed" : true,
      "showHeader" : true,
      "showHero" : true
    },
    "componentName" : "siteforce:themeLayoutStarter",
    "id" : "bfd55f7d-c8b9-4115-bef4-2e5e07492af1",
    "label" : "ServiceNotAvailable",
    "regions" : [ {
      "id" : "71518bf2-f97d-4bd3-893c-cf82af549ddc",
      "regionName" : "themeHeader",
      "type" : "region"
    }, {
      "id" : "26f3e072-2815-4e72-bb27-7ca17d7a8242",
      "regionName" : "themeFooter",
      "type" : "region"
    } ],
    "type" : "view"
  } ]
}