{
  "activeViewId" : "2d2dc253-87ee-4771-9e7f-26250244a582",
  "appPageId" : "26f3a209-dc55-4264-ad2b-8c6fd9290193",
  "configurationTags" : [ ],
  "id" : "e271ed20-a708-49fe-b118-7b5902abd3ea",
  "label" : "Account Management",
  "routeType" : "account-management",
  "type" : "route",
  "urlPrefix" : "account-management"
}