{
  "activeViewId" : "0b18625c-3d64-4a80-b35b-fe6c7cd2a655",
  "appPageId" : "26f3a209-dc55-4264-ad2b-8c6fd9290193",
  "configurationTags" : [ ],
  "id" : "7bff2a56-11ec-4dad-b447-9eac2004c9d4",
  "label" : "Dashboard List",
  "routeType" : "list-01Z",
  "type" : "route",
  "urlPrefix" : "dashboard"
}