{
  "activeViewId" : "7045673e-bad7-45d1-b791-c6c3e28977a3",
  "appPageId" : "26f3a209-dc55-4264-ad2b-8c6fd9290193",
  "configurationTags" : [ ],
  "id" : "48cae011-01f7-4941-a2a6-30ebd32bec62",
  "label" : "File Related List",
  "routeType" : "relatedlist-069",
  "type" : "route",
  "urlPrefix" : "contentdocument"
}