{
  "activeViewId" : "a159f0c5-6b56-45a9-b446-a96cc275c4c4",
  "appPageId" : "ae493539-fa4b-4673-bcca-9e6220f1b025",
  "configurationTags" : [ ],
  "id" : "311c0184-136d-4bfc-b464-e87ba0100eaa",
  "label" : "Forgot Password",
  "routeType" : "forgot-password",
  "type" : "route",
  "urlPrefix" : "ForgotPassword"
}