{
  "activeViewId" : "0ed65846-204b-4bb2-9041-524f883bc3e0",
  "appPageId" : "ae493539-fa4b-4673-bcca-9e6220f1b025",
  "configurationTags" : [ ],
  "id" : "960b08d4-2488-4cc5-9ecd-81b705f0d79f",
  "label" : "Login",
  "routeType" : "login-home",
  "type" : "route",
  "urlPrefix" : ""
}