{
  "activeViewId" : "358643fd-a797-461d-b446-afaee6dbf131",
  "appPageId" : "26f3a209-dc55-4264-ad2b-8c6fd9290193",
  "configurationTags" : [ ],
  "id" : "51ce41d0-3a91-4332-b11a-ef310a0dadde",
  "label" : "Report Detail",
  "routeType" : "detail-00O",
  "type" : "route",
  "urlPrefix" : "report"
}