{
  "activeViewId" : "d04e8b7e-8e76-492e-8cc8-f7e6ca36091a",
  "appPageId" : "26f3a209-dc55-4264-ad2b-8c6fd9290193",
  "configurationTags" : [ ],
  "id" : "19e7ea61-2f18-4e23-b155-0777a2601143",
  "label" : "Report Related List",
  "routeType" : "relatedlist-00O",
  "type" : "route",
  "urlPrefix" : "report"
}