{
  "activeViewId" : "4d8028a8-5a82-49bb-a590-7b26ac9f15c0",
  "appPageId" : "26f3a209-dc55-4264-ad2b-8c6fd9290193",
  "configurationTags" : [ ],
  "id" : "9f306095-6f7c-4601-898f-965d8a27d41e",
  "label" : "Topic Detail",
  "routeType" : "topic",
  "type" : "route",
  "urlPrefix" : "topic"
}